// Copyright (C) 2007-2011  CEA/DEN, EDF R&D, OPEN CASCADE
//
// This library is free software; you can redistribute it and/or
// modify it under the terms of the GNU Lesser General Public
// License as published by the Free Software Foundation; either
// version 2.1 of the License.
//
// This library is distributed in the hope that it will be useful,
// but WITHOUT ANY WARRANTY; without even the implied warranty of
// MERCHANTABILITY or FITNESS FOR A PARTICULAR PURPOSE.  See the GNU
// Lesser General Public License for more details.
//
// You should have received a copy of the GNU Lesser General Public
// License along with this library; if not, write to the Free Software
// Foundation, Inc., 59 Temple Place, Suite 330, Boston, MA  02111-1307 USA
//
// See http://www.salome-platform.org/ or email : webmaster.salome@opencascade.com
//

// SMESH SMESHGUI : GUI for SMESH component
// File   : libSMESH_Swig.i
// Author : Nicolas REJNERI, Open CASCADE S.A.S.
//
%module libSMESH_Swig

%{
#include "libSMESH_Swig.h"
%}

/* Exception handler for all functions */
%exception 
{
  class PyAllowThreadsGuard
  {
  public:
    // Py_BEGIN_ALLOW_THREADS
    PyAllowThreadsGuard() { _save = PyEval_SaveThread(); }
    // Py_END_ALLOW_THREADS
    ~PyAllowThreadsGuard() { PyEval_RestoreThread(_save); }
  private:
    PyThreadState *_save;
  };

  PyAllowThreadsGuard guard;

  $action
}

%include "typemaps.i"

class SMESH_Swig
{
 public:
  SMESH_Swig();
  ~SMESH_Swig();

  void Init(int studyID);

  const char* AddNewMesh(const char* IOR);
  const char* AddNewHypothesis(const char* IOR);
  const char* AddNewAlgorithms(const char* IOR);

  void SetShape(const char* ShapeEntry, const char* MeshEntry);

  void SetHypothesis(const char* Mesh_Or_SubMesh_Entry, const char* Hypothesis_Entry);
  void SetAlgorithms(const char* Mesh_Or_SubMesh_Entry, const char* Algorithms_Entry);

  void UnSetHypothesis(const char* Applied_Hypothesis_Entry );

  const char* AddSubMesh (const char* Mesh_Entry, const char* SM_IOR, int ST);
  const char* AddSubMeshOnShape (const char* Mesh_Entry, const char* GeomShape_Entry, const char* SM_IOR, int ST);

  void SetName(const char* Entry, const char* Name);

  void SetMeshIcon(const char* Mesh_Entry, const bool isComputed, const bool isEmpty);

  void CreateAndDisplayActor( const char* Mesh_Entry );
};
